<?xml version="1.0" encoding="iso-8859-1"?>
<!-- Generator: Adobe Illustrator 18.1.1, SVG Export Plug-In . SVG Version: 6.00 Build 0)  -->
<svg version="1.1" id="Capa_1" xmlns="http://www.w3.org/2000/svg" xmlns:xlink="http://www.w3.org/1999/xlink" x="0px" y="0px"
	 viewBox="0 0 43.773 43.773" style="enable-background:new 0 0 43.773 43.773;" xml:space="preserve">
<g>
	<path style="fill:#010002;" d="M38.772,39.368V15.485H24.296V0H9.406C6.973,0,5.001,1.973,5.001,4.405v39.368h29.366
		C36.801,43.773,38.772,41.801,38.772,39.368z"/>
	<polygon style="fill:#010002;" points="25.894,0 25.894,13.902 38.772,13.902 	"/>
</g>
<g>
</g>
<g>
</g>
<g>
</g>
<g>
</g>
<g>
</g>
<g>
</g>
<g>
</g>
<g>
</g>
<g>
</g>
<g>
</g>
<g>
</g>
<g>
</g>
<g>
</g>
<g>
</g>
<g>
</g>
</svg>
