<?xml version="1.0" standalone="no"?>
<!DOCTYPE svg PUBLIC "-//W3C//DTD SVG 20010904//EN"
 "http://www.w3.org/TR/2001/REC-SVG-20010904/DTD/svg10.dtd">
<svg version="1.0" xmlns="http://www.w3.org/2000/svg"
 width="181.000000pt" height="181.000000pt" viewBox="0 0 181.000000 181.000000"
 preserveAspectRatio="xMidYMid meet">
<metadata>
Created by potrace 1.12, written by Peter Selinger 2001-2015
</metadata>
<g transform="translate(0.000000,181.000000) scale(0.100000,-0.100000)"
fill="#000000" stroke="none">
<path d="M725 1753 c-16 -9 -33 -21 -38 -27 -4 -6 -6 -101 -6 -211 1 -110 -2
-213 -6 -228 -4 -16 -4 -32 1 -37 5 -5 60 -10 123 -11 151 -4 147 -9 146 179
l0 141 55 6 c69 8 267 11 272 5 6 -8 -10 -798 -19 -955 -4 -77 -7 -182 -8
-234 l0 -94 -158 5 c-87 3 -161 9 -165 13 -4 3 -6 72 -4 151 l3 145 -128 -7
c-76 -4 -133 -11 -141 -18 -10 -10 -11 -66 -6 -266 l7 -253 394 6 c269 5 399
10 412 18 41 26 42 36 46 467 9 902 13 1138 20 1162 12 45 -11 48 -405 53
-317 5 -369 3 -395 -10z"/>
<path d="M437 1270 c-117 -121 -254 -291 -263 -325 -10 -38 4 -63 80 -144 39
-42 91 -103 115 -136 59 -81 112 -135 131 -135 38 0 50 32 50 129 l0 93 231
-3 231 -3 25 24 c23 22 25 30 19 75 -3 27 -6 101 -6 162 l0 113 -241 2 -242 3
-1 119 c-1 93 -4 120 -15 124 -8 3 -55 -37 -114 -98z"/>
</g>
</svg>
